(kicad_sch
	(version 20231120)
	(generator "eeschema")
	(generator_version "8.0")
	(uuid "03ae2b2e-a327-4b31-aa70-8b212a3dfc6c")
	(paper "A4")
	(title_block
		(title "PC104 FlatSat")
		(rev "1.0.0")
	)
	(lib_symbols
		(symbol "Connector:Conn_01x02_Socket"
			(pin_names
				(offset 1.016) hide)
			(exclude_from_sim no)
			(in_bom yes)
			(on_board yes)
			(property "Reference" "J"
				(at 0 2.54 0)
				(effects
					(font
						(size 1.27 1.27)
					)
				)
			)
			(property "Value" "Conn_01x02_Socket"
				(at 0 -5.08 0)
				(effects
					(font
						(size 1.27 1.27)
					)
				)
			)
			(property "Footprint" ""
				(at 0 0 0)
				(effects
					(font
						(size 1.27 1.27)
					)
					(hide yes)
				)
			)
			(property "Datasheet" "~"
				(at 0 0 0)
				(effects
					(font
						(size 1.27 1.27)
					)
					(hide yes)
				)
			)
			(property "Description" "Generic connector, single row, 01x02, script generated"
				(at 0 0 0)
				(effects
					(font
						(size 1.27 1.27)
					)
					(hide yes)
				)
			)
			(property "ki_locked" ""
				(at 0 0 0)
				(effects
					(font
						(size 1.27 1.27)
					)
				)
			)
			(property "ki_keywords" "connector"
				(at 0 0 0)
				(effects
					(font
						(size 1.27 1.27)
					)
					(hide yes)
				)
			)
			(property "ki_fp_filters" "Connector*:*_1x??_*"
				(at 0 0 0)
				(effects
					(font
						(size 1.27 1.27)
					)
					(hide yes)
				)
			)
			(symbol "Conn_01x02_Socket_1_1"
				(arc
					(start 0 -2.032)
					(mid -0.5058 -2.54)
					(end 0 -3.048)
					(stroke
						(width 0.1524)
						(type default)
					)
					(fill
						(type none)
					)
				)
				(polyline
					(pts
						(xy -1.27 -2.54) (xy -0.508 -2.54)
					)
					(stroke
						(width 0.1524)
						(type default)
					)
					(fill
						(type none)
					)
				)
				(polyline
					(pts
						(xy -1.27 0) (xy -0.508 0)
					)
					(stroke
						(width 0.1524)
						(type default)
					)
					(fill
						(type none)
					)
				)
				(arc
					(start 0 0.508)
					(mid -0.5058 0)
					(end 0 -0.508)
					(stroke
						(width 0.1524)
						(type default)
					)
					(fill
						(type none)
					)
				)
				(pin passive line
					(at -5.08 0 0)
					(length 3.81)
					(name "Pin_1"
						(effects
							(font
								(size 1.27 1.27)
							)
						)
					)
					(number "1"
						(effects
							(font
								(size 1.27 1.27)
							)
						)
					)
				)
				(pin passive line
					(at -5.08 -2.54 0)
					(length 3.81)
					(name "Pin_2"
						(effects
							(font
								(size 1.27 1.27)
							)
						)
					)
					(number "2"
						(effects
							(font
								(size 1.27 1.27)
							)
						)
					)
				)
			)
		)
		(symbol "Device:C"
			(pin_numbers hide)
			(pin_names
				(offset 0.254)
			)
			(exclude_from_sim no)
			(in_bom yes)
			(on_board yes)
			(property "Reference" "C"
				(at 0.635 2.54 0)
				(effects
					(font
						(size 1.27 1.27)
					)
					(justify left)
				)
			)
			(property "Value" "C"
				(at 0.635 -2.54 0)
				(effects
					(font
						(size 1.27 1.27)
					)
					(justify left)
				)
			)
			(property "Footprint" ""
				(at 0.9652 -3.81 0)
				(effects
					(font
						(size 1.27 1.27)
					)
					(hide yes)
				)
			)
			(property "Datasheet" "~"
				(at 0 0 0)
				(effects
					(font
						(size 1.27 1.27)
					)
					(hide yes)
				)
			)
			(property "Description" "Unpolarized capacitor"
				(at 0 0 0)
				(effects
					(font
						(size 1.27 1.27)
					)
					(hide yes)
				)
			)
			(property "ki_keywords" "cap capacitor"
				(at 0 0 0)
				(effects
					(font
						(size 1.27 1.27)
					)
					(hide yes)
				)
			)
			(property "ki_fp_filters" "C_*"
				(at 0 0 0)
				(effects
					(font
						(size 1.27 1.27)
					)
					(hide yes)
				)
			)
			(symbol "C_0_1"
				(polyline
					(pts
						(xy -2.032 -0.762) (xy 2.032 -0.762)
					)
					(stroke
						(width 0.508)
						(type default)
					)
					(fill
						(type none)
					)
				)
				(polyline
					(pts
						(xy -2.032 0.762) (xy 2.032 0.762)
					)
					(stroke
						(width 0.508)
						(type default)
					)
					(fill
						(type none)
					)
				)
			)
			(symbol "C_1_1"
				(pin passive line
					(at 0 3.81 270)
					(length 2.794)
					(name "~"
						(effects
							(font
								(size 1.27 1.27)
							)
						)
					)
					(number "1"
						(effects
							(font
								(size 1.27 1.27)
							)
						)
					)
				)
				(pin passive line
					(at 0 -3.81 90)
					(length 2.794)
					(name "~"
						(effects
							(font
								(size 1.27 1.27)
							)
						)
					)
					(number "2"
						(effects
							(font
								(size 1.27 1.27)
							)
						)
					)
				)
			)
		)
		(symbol "Device:D_Zener"
			(pin_numbers hide)
			(pin_names
				(offset 1.016) hide)
			(exclude_from_sim no)
			(in_bom yes)
			(on_board yes)
			(property "Reference" "D"
				(at 0 2.54 0)
				(effects
					(font
						(size 1.27 1.27)
					)
				)
			)
			(property "Value" "D_Zener"
				(at 0 -2.54 0)
				(effects
					(font
						(size 1.27 1.27)
					)
				)
			)
			(property "Footprint" ""
				(at 0 0 0)
				(effects
					(font
						(size 1.27 1.27)
					)
					(hide yes)
				)
			)
			(property "Datasheet" "~"
				(at 0 0 0)
				(effects
					(font
						(size 1.27 1.27)
					)
					(hide yes)
				)
			)
			(property "Description" "Zener diode"
				(at 0 0 0)
				(effects
					(font
						(size 1.27 1.27)
					)
					(hide yes)
				)
			)
			(property "ki_keywords" "diode"
				(at 0 0 0)
				(effects
					(font
						(size 1.27 1.27)
					)
					(hide yes)
				)
			)
			(property "ki_fp_filters" "TO-???* *_Diode_* *SingleDiode* D_*"
				(at 0 0 0)
				(effects
					(font
						(size 1.27 1.27)
					)
					(hide yes)
				)
			)
			(symbol "D_Zener_0_1"
				(polyline
					(pts
						(xy 1.27 0) (xy -1.27 0)
					)
					(stroke
						(width 0)
						(type default)
					)
					(fill
						(type none)
					)
				)
				(polyline
					(pts
						(xy -1.27 -1.27) (xy -1.27 1.27) (xy -0.762 1.27)
					)
					(stroke
						(width 0.254)
						(type default)
					)
					(fill
						(type none)
					)
				)
				(polyline
					(pts
						(xy 1.27 -1.27) (xy 1.27 1.27) (xy -1.27 0) (xy 1.27 -1.27)
					)
					(stroke
						(width 0.254)
						(type default)
					)
					(fill
						(type none)
					)
				)
			)
			(symbol "D_Zener_1_1"
				(pin passive line
					(at -3.81 0 0)
					(length 2.54)
					(name "K"
						(effects
							(font
								(size 1.27 1.27)
							)
						)
					)
					(number "1"
						(effects
							(font
								(size 1.27 1.27)
							)
						)
					)
				)
				(pin passive line
					(at 3.81 0 180)
					(length 2.54)
					(name "A"
						(effects
							(font
								(size 1.27 1.27)
							)
						)
					)
					(number "2"
						(effects
							(font
								(size 1.27 1.27)
							)
						)
					)
				)
			)
		)
		(symbol "Device:LED"
			(pin_numbers hide)
			(pin_names
				(offset 1.016) hide)
			(exclude_from_sim no)
			(in_bom yes)
			(on_board yes)
			(property "Reference" "D"
				(at 0 2.54 0)
				(effects
					(font
						(size 1.27 1.27)
					)
				)
			)
			(property "Value" "LED"
				(at 0 -2.54 0)
				(effects
					(font
						(size 1.27 1.27)
					)
				)
			)
			(property "Footprint" ""
				(at 0 0 0)
				(effects
					(font
						(size 1.27 1.27)
					)
					(hide yes)
				)
			)
			(property "Datasheet" "~"
				(at 0 0 0)
				(effects
					(font
						(size 1.27 1.27)
					)
					(hide yes)
				)
			)
			(property "Description" "Light emitting diode"
				(at 0 0 0)
				(effects
					(font
						(size 1.27 1.27)
					)
					(hide yes)
				)
			)
			(property "ki_keywords" "LED diode"
				(at 0 0 0)
				(effects
					(font
						(size 1.27 1.27)
					)
					(hide yes)
				)
			)
			(property "ki_fp_filters" "LED* LED_SMD:* LED_THT:*"
				(at 0 0 0)
				(effects
					(font
						(size 1.27 1.27)
					)
					(hide yes)
				)
			)
			(symbol "LED_0_1"
				(polyline
					(pts
						(xy -1.27 -1.27) (xy -1.27 1.27)
					)
					(stroke
						(width 0.254)
						(type default)
					)
					(fill
						(type none)
					)
				)
				(polyline
					(pts
						(xy -1.27 0) (xy 1.27 0)
					)
					(stroke
						(width 0)
						(type default)
					)
					(fill
						(type none)
					)
				)
				(polyline
					(pts
						(xy 1.27 -1.27) (xy 1.27 1.27) (xy -1.27 0) (xy 1.27 -1.27)
					)
					(stroke
						(width 0.254)
						(type default)
					)
					(fill
						(type none)
					)
				)
				(polyline
					(pts
						(xy -3.048 -0.762) (xy -4.572 -2.286) (xy -3.81 -2.286) (xy -4.572 -2.286) (xy -4.572 -1.524)
					)
					(stroke
						(width 0)
						(type default)
					)
					(fill
						(type none)
					)
				)
				(polyline
					(pts
						(xy -1.778 -0.762) (xy -3.302 -2.286) (xy -2.54 -2.286) (xy -3.302 -2.286) (xy -3.302 -1.524)
					)
					(stroke
						(width 0)
						(type default)
					)
					(fill
						(type none)
					)
				)
			)
			(symbol "LED_1_1"
				(pin passive line
					(at -3.81 0 0)
					(length 2.54)
					(name "K"
						(effects
							(font
								(size 1.27 1.27)
							)
						)
					)
					(number "1"
						(effects
							(font
								(size 1.27 1.27)
							)
						)
					)
				)
				(pin passive line
					(at 3.81 0 180)
					(length 2.54)
					(name "A"
						(effects
							(font
								(size 1.27 1.27)
							)
						)
					)
					(number "2"
						(effects
							(font
								(size 1.27 1.27)
							)
						)
					)
				)
			)
		)
		(symbol "Device:R"
			(pin_numbers hide)
			(pin_names
				(offset 0)
			)
			(exclude_from_sim no)
			(in_bom yes)
			(on_board yes)
			(property "Reference" "R"
				(at 2.032 0 90)
				(effects
					(font
						(size 1.27 1.27)
					)
				)
			)
			(property "Value" "R"
				(at 0 0 90)
				(effects
					(font
						(size 1.27 1.27)
					)
				)
			)
			(property "Footprint" ""
				(at -1.778 0 90)
				(effects
					(font
						(size 1.27 1.27)
					)
					(hide yes)
				)
			)
			(property "Datasheet" "~"
				(at 0 0 0)
				(effects
					(font
						(size 1.27 1.27)
					)
					(hide yes)
				)
			)
			(property "Description" "Resistor"
				(at 0 0 0)
				(effects
					(font
						(size 1.27 1.27)
					)
					(hide yes)
				)
			)
			(property "ki_keywords" "R res resistor"
				(at 0 0 0)
				(effects
					(font
						(size 1.27 1.27)
					)
					(hide yes)
				)
			)
			(property "ki_fp_filters" "R_*"
				(at 0 0 0)
				(effects
					(font
						(size 1.27 1.27)
					)
					(hide yes)
				)
			)
			(symbol "R_0_1"
				(rectangle
					(start -1.016 -2.54)
					(end 1.016 2.54)
					(stroke
						(width 0.254)
						(type default)
					)
					(fill
						(type none)
					)
				)
			)
			(symbol "R_1_1"
				(pin passive line
					(at 0 3.81 270)
					(length 1.27)
					(name "~"
						(effects
							(font
								(size 1.27 1.27)
							)
						)
					)
					(number "1"
						(effects
							(font
								(size 1.27 1.27)
							)
						)
					)
				)
				(pin passive line
					(at 0 -3.81 90)
					(length 1.27)
					(name "~"
						(effects
							(font
								(size 1.27 1.27)
							)
						)
					)
					(number "2"
						(effects
							(font
								(size 1.27 1.27)
							)
						)
					)
				)
			)
		)
		(symbol "PC104-FlatSat:PXP8R3-20QX"
			(exclude_from_sim no)
			(in_bom yes)
			(on_board yes)
			(property "Reference" "Q"
				(at 0 -6.35 0)
				(effects
					(font
						(size 1.27 1.27)
					)
				)
			)
			(property "Value" "PXP8R3-20QX"
				(at 0 6.35 0)
				(effects
					(font
						(size 1.27 1.27)
					)
				)
			)
			(property "Footprint" "PC104-FlatSat:MLPAK-33"
				(at 16.51 0 0)
				(effects
					(font
						(size 1.27 1.27)
					)
					(hide yes)
				)
			)
			(property "Datasheet" "https://gr.mouser.com/datasheet/2/916/PXP8R3_20QX-2721702.pdf"
				(at 38.1 2.54 0)
				(effects
					(font
						(size 1.27 1.27)
					)
					(hide yes)
				)
			)
			(property "Description" "20V, P-channel Trench MOSFET"
				(at 0 0 0)
				(effects
					(font
						(size 1.27 1.27)
					)
					(hide yes)
				)
			)
			(property "ki_keywords" "MLPAK33 (SOT8002)"
				(at 0 0 0)
				(effects
					(font
						(size 1.27 1.27)
					)
					(hide yes)
				)
			)
			(symbol "PXP8R3-20QX_0_1"
				(polyline
					(pts
						(xy -1.016 0) (xy -3.81 0)
					)
					(stroke
						(width 0)
						(type default)
					)
					(fill
						(type none)
					)
				)
				(polyline
					(pts
						(xy -1.016 1.905) (xy -1.016 -1.905)
					)
					(stroke
						(width 0.254)
						(type default)
					)
					(fill
						(type none)
					)
				)
				(polyline
					(pts
						(xy -0.508 -1.27) (xy -0.508 -2.286)
					)
					(stroke
						(width 0.254)
						(type default)
					)
					(fill
						(type none)
					)
				)
				(polyline
					(pts
						(xy -0.508 0.508) (xy -0.508 -0.508)
					)
					(stroke
						(width 0.254)
						(type default)
					)
					(fill
						(type none)
					)
				)
				(polyline
					(pts
						(xy -0.508 2.286) (xy -0.508 1.27)
					)
					(stroke
						(width 0.254)
						(type default)
					)
					(fill
						(type none)
					)
				)
				(polyline
					(pts
						(xy 1.27 2.54) (xy 1.27 1.778)
					)
					(stroke
						(width 0)
						(type default)
					)
					(fill
						(type none)
					)
				)
				(polyline
					(pts
						(xy 1.27 -2.54) (xy 1.27 0) (xy -0.508 0)
					)
					(stroke
						(width 0)
						(type default)
					)
					(fill
						(type none)
					)
				)
				(polyline
					(pts
						(xy -0.508 1.778) (xy 2.032 1.778) (xy 2.032 -1.778) (xy -0.508 -1.778)
					)
					(stroke
						(width 0)
						(type default)
					)
					(fill
						(type none)
					)
				)
				(polyline
					(pts
						(xy 1.016 0) (xy 0 0.381) (xy 0 -0.381) (xy 1.016 0)
					)
					(stroke
						(width 0)
						(type default)
					)
					(fill
						(type outline)
					)
				)
				(polyline
					(pts
						(xy 1.524 -0.508) (xy 1.651 -0.381) (xy 2.413 -0.381) (xy 2.54 -0.254)
					)
					(stroke
						(width 0)
						(type default)
					)
					(fill
						(type none)
					)
				)
				(polyline
					(pts
						(xy 2.032 -0.381) (xy 1.651 0.254) (xy 2.413 0.254) (xy 2.032 -0.381)
					)
					(stroke
						(width 0)
						(type default)
					)
					(fill
						(type none)
					)
				)
				(circle
					(center 0.381 0)
					(radius 2.794)
					(stroke
						(width 0.254)
						(type default)
					)
					(fill
						(type none)
					)
				)
				(circle
					(center 1.27 -1.778)
					(radius 0.254)
					(stroke
						(width 0)
						(type default)
					)
					(fill
						(type outline)
					)
				)
				(circle
					(center 1.27 1.778)
					(radius 0.254)
					(stroke
						(width 0)
						(type default)
					)
					(fill
						(type outline)
					)
				)
			)
			(symbol "PXP8R3-20QX_1_1"
				(pin passive line
					(at 1.27 -5.08 90)
					(length 2.54)
					(name ""
						(effects
							(font
								(size 1.27 1.27)
							)
						)
					)
					(number "1"
						(effects
							(font
								(size 1.27 1.27)
							)
						)
					)
				)
				(pin passive line
					(at 1.27 -5.08 90)
					(length 2.54) hide
					(name ""
						(effects
							(font
								(size 1.27 1.27)
							)
						)
					)
					(number "2"
						(effects
							(font
								(size 1.27 1.27)
							)
						)
					)
				)
				(pin passive line
					(at 1.27 -5.08 90)
					(length 2.54) hide
					(name ""
						(effects
							(font
								(size 1.27 1.27)
							)
						)
					)
					(number "3"
						(effects
							(font
								(size 1.27 1.27)
							)
						)
					)
				)
				(pin input line
					(at -6.35 0 0)
					(length 2.54)
					(name ""
						(effects
							(font
								(size 1.27 1.27)
							)
						)
					)
					(number "4"
						(effects
							(font
								(size 1.27 1.27)
							)
						)
					)
				)
				(pin passive line
					(at 1.27 5.08 270)
					(length 2.54)
					(name ""
						(effects
							(font
								(size 1.27 1.27)
							)
						)
					)
					(number "5"
						(effects
							(font
								(size 1.27 1.27)
							)
						)
					)
				)
			)
		)
		(symbol "Regulator_Linear:LM1117MP-5.0"
			(exclude_from_sim no)
			(in_bom yes)
			(on_board yes)
			(property "Reference" "U"
				(at -3.81 3.175 0)
				(effects
					(font
						(size 1.27 1.27)
					)
				)
			)
			(property "Value" "LM1117MP-5.0"
				(at 0 3.175 0)
				(effects
					(font
						(size 1.27 1.27)
					)
					(justify left)
				)
			)
			(property "Footprint" "Package_TO_SOT_SMD:SOT-223-3_TabPin2"
				(at 0 0 0)
				(effects
					(font
						(size 1.27 1.27)
					)
					(hide yes)
				)
			)
			(property "Datasheet" "http://www.ti.com/lit/ds/symlink/lm1117.pdf"
				(at 0 0 0)
				(effects
					(font
						(size 1.27 1.27)
					)
					(hide yes)
				)
			)
			(property "Description" "800mA Low-Dropout Linear Regulator, 5.0V fixed output, SOT-223"
				(at 0 0 0)
				(effects
					(font
						(size 1.27 1.27)
					)
					(hide yes)
				)
			)
			(property "ki_keywords" "linear regulator ldo fixed positive"
				(at 0 0 0)
				(effects
					(font
						(size 1.27 1.27)
					)
					(hide yes)
				)
			)
			(property "ki_fp_filters" "SOT?223*"
				(at 0 0 0)
				(effects
					(font
						(size 1.27 1.27)
					)
					(hide yes)
				)
			)
			(symbol "LM1117MP-5.0_0_1"
				(rectangle
					(start -5.08 -5.08)
					(end 5.08 1.905)
					(stroke
						(width 0.254)
						(type default)
					)
					(fill
						(type background)
					)
				)
			)
			(symbol "LM1117MP-5.0_1_1"
				(pin power_in line
					(at 0 -7.62 90)
					(length 2.54)
					(name "GND"
						(effects
							(font
								(size 1.27 1.27)
							)
						)
					)
					(number "1"
						(effects
							(font
								(size 1.27 1.27)
							)
						)
					)
				)
				(pin power_out line
					(at 7.62 0 180)
					(length 2.54)
					(name "VO"
						(effects
							(font
								(size 1.27 1.27)
							)
						)
					)
					(number "2"
						(effects
							(font
								(size 1.27 1.27)
							)
						)
					)
				)
				(pin power_in line
					(at -7.62 0 0)
					(length 2.54)
					(name "VI"
						(effects
							(font
								(size 1.27 1.27)
							)
						)
					)
					(number "3"
						(effects
							(font
								(size 1.27 1.27)
							)
						)
					)
				)
			)
		)
		(symbol "power:+5V"
			(power)
			(pin_names
				(offset 0)
			)
			(exclude_from_sim no)
			(in_bom yes)
			(on_board yes)
			(property "Reference" "#PWR"
				(at 0 -3.81 0)
				(effects
					(font
						(size 1.27 1.27)
					)
					(hide yes)
				)
			)
			(property "Value" "+5V"
				(at 0 3.556 0)
				(effects
					(font
						(size 1.27 1.27)
					)
				)
			)
			(property "Footprint" ""
				(at 0 0 0)
				(effects
					(font
						(size 1.27 1.27)
					)
					(hide yes)
				)
			)
			(property "Datasheet" ""
				(at 0 0 0)
				(effects
					(font
						(size 1.27 1.27)
					)
					(hide yes)
				)
			)
			(property "Description" "Power symbol creates a global label with name \"+5V\""
				(at 0 0 0)
				(effects
					(font
						(size 1.27 1.27)
					)
					(hide yes)
				)
			)
			(property "ki_keywords" "global power"
				(at 0 0 0)
				(effects
					(font
						(size 1.27 1.27)
					)
					(hide yes)
				)
			)
			(symbol "+5V_0_1"
				(polyline
					(pts
						(xy -0.762 1.27) (xy 0 2.54)
					)
					(stroke
						(width 0)
						(type default)
					)
					(fill
						(type none)
					)
				)
				(polyline
					(pts
						(xy 0 0) (xy 0 2.54)
					)
					(stroke
						(width 0)
						(type default)
					)
					(fill
						(type none)
					)
				)
				(polyline
					(pts
						(xy 0 2.54) (xy 0.762 1.27)
					)
					(stroke
						(width 0)
						(type default)
					)
					(fill
						(type none)
					)
				)
			)
			(symbol "+5V_1_1"
				(pin power_in line
					(at 0 0 90)
					(length 0) hide
					(name "+5V"
						(effects
							(font
								(size 1.27 1.27)
							)
						)
					)
					(number "1"
						(effects
							(font
								(size 1.27 1.27)
							)
						)
					)
				)
			)
		)
		(symbol "power:GND"
			(power)
			(pin_names
				(offset 0)
			)
			(exclude_from_sim no)
			(in_bom yes)
			(on_board yes)
			(property "Reference" "#PWR"
				(at 0 -6.35 0)
				(effects
					(font
						(size 1.27 1.27)
					)
					(hide yes)
				)
			)
			(property "Value" "GND"
				(at 0 -3.81 0)
				(effects
					(font
						(size 1.27 1.27)
					)
				)
			)
			(property "Footprint" ""
				(at 0 0 0)
				(effects
					(font
						(size 1.27 1.27)
					)
					(hide yes)
				)
			)
			(property "Datasheet" ""
				(at 0 0 0)
				(effects
					(font
						(size 1.27 1.27)
					)
					(hide yes)
				)
			)
			(property "Description" "Power symbol creates a global label with name \"GND\" , ground"
				(at 0 0 0)
				(effects
					(font
						(size 1.27 1.27)
					)
					(hide yes)
				)
			)
			(property "ki_keywords" "global power"
				(at 0 0 0)
				(effects
					(font
						(size 1.27 1.27)
					)
					(hide yes)
				)
			)
			(symbol "GND_0_1"
				(polyline
					(pts
						(xy 0 0) (xy 0 -1.27) (xy 1.27 -1.27) (xy 0 -2.54) (xy -1.27 -1.27) (xy 0 -1.27)
					)
					(stroke
						(width 0)
						(type default)
					)
					(fill
						(type none)
					)
				)
			)
			(symbol "GND_1_1"
				(pin power_in line
					(at 0 0 270)
					(length 0) hide
					(name "GND"
						(effects
							(font
								(size 1.27 1.27)
							)
						)
					)
					(number "1"
						(effects
							(font
								(size 1.27 1.27)
							)
						)
					)
				)
			)
		)
		(symbol "power:PWR_FLAG"
			(power)
			(pin_numbers hide)
			(pin_names
				(offset 0) hide)
			(exclude_from_sim no)
			(in_bom yes)
			(on_board yes)
			(property "Reference" "#FLG"
				(at 0 1.905 0)
				(effects
					(font
						(size 1.27 1.27)
					)
					(hide yes)
				)
			)
			(property "Value" "PWR_FLAG"
				(at 0 3.81 0)
				(effects
					(font
						(size 1.27 1.27)
					)
				)
			)
			(property "Footprint" ""
				(at 0 0 0)
				(effects
					(font
						(size 1.27 1.27)
					)
					(hide yes)
				)
			)
			(property "Datasheet" "~"
				(at 0 0 0)
				(effects
					(font
						(size 1.27 1.27)
					)
					(hide yes)
				)
			)
			(property "Description" "Special symbol for telling ERC where power comes from"
				(at 0 0 0)
				(effects
					(font
						(size 1.27 1.27)
					)
					(hide yes)
				)
			)
			(property "ki_keywords" "flag power"
				(at 0 0 0)
				(effects
					(font
						(size 1.27 1.27)
					)
					(hide yes)
				)
			)
			(symbol "PWR_FLAG_0_0"
				(pin power_out line
					(at 0 0 90)
					(length 0)
					(name "pwr"
						(effects
							(font
								(size 1.27 1.27)
							)
						)
					)
					(number "1"
						(effects
							(font
								(size 1.27 1.27)
							)
						)
					)
				)
			)
			(symbol "PWR_FLAG_0_1"
				(polyline
					(pts
						(xy 0 0) (xy 0 1.27) (xy -1.016 1.905) (xy 0 2.54) (xy 1.016 1.905) (xy 0 1.27)
					)
					(stroke
						(width 0)
						(type default)
					)
					(fill
						(type none)
					)
				)
			)
		)
	)
	(junction
		(at 194.31 88.9)
		(diameter 0)
		(color 0 0 0 0)
		(uuid "1efaafc4-a049-486b-b660-97c442a95190")
	)
	(junction
		(at 236.22 100.33)
		(diameter 0)
		(color 0 0 0 0)
		(uuid "235421c4-9a6b-412b-89ed-ea330df825f1")
	)
	(junction
		(at 168.91 113.03)
		(diameter 0)
		(color 0 0 0 0)
		(uuid "2d513144-692d-40b6-94c8-b3feb957551c")
	)
	(junction
		(at 224.79 88.9)
		(diameter 0)
		(color 0 0 0 0)
		(uuid "5ba96750-d753-4071-91fd-9403b0bc5f26")
	)
	(junction
		(at 247.65 88.9)
		(diameter 0)
		(color 0 0 0 0)
		(uuid "645f3364-badc-4401-87b4-25d2c586217b")
	)
	(junction
		(at 236.22 99.06)
		(diameter 0)
		(color 0 0 0 0)
		(uuid "7923163a-ddda-4b85-847f-bf2e622c6ccd")
	)
	(junction
		(at 186.69 88.9)
		(diameter 0)
		(color 0 0 0 0)
		(uuid "931c12c2-2c0c-4e02-8194-d05e3508308a")
	)
	(junction
		(at 168.91 88.9)
		(diameter 0)
		(color 0 0 0 0)
		(uuid "e0ef447d-a05c-451a-bf20-db2555596f9c")
	)
	(junction
		(at 168.91 99.06)
		(diameter 0)
		(color 0 0 0 0)
		(uuid "e7dde0d3-3ac1-418e-87d9-d9726ff40441")
	)
	(wire
		(pts
			(xy 186.69 88.9) (xy 186.69 93.98)
		)
		(stroke
			(width 0)
			(type default)
		)
		(uuid "0634d09b-b4f3-4924-aa97-64df90948bc8")
	)
	(wire
		(pts
			(xy 161.29 99.06) (xy 168.91 99.06)
		)
		(stroke
			(width 0)
			(type default)
		)
		(uuid "0b3d4208-4257-4a45-bf45-0ac0b66edc08")
	)
	(wire
		(pts
			(xy 99.06 95.25) (xy 119.38 95.25)
		)
		(stroke
			(width 0)
			(type default)
		)
		(uuid "17c369cf-c27d-429e-9fd7-b60e8872935e")
	)
	(wire
		(pts
			(xy 236.22 101.6) (xy 236.22 100.33)
		)
		(stroke
			(width 0)
			(type default)
		)
		(uuid "2478c569-8a45-431f-9a8b-370e1a34706e")
	)
	(wire
		(pts
			(xy 186.69 101.6) (xy 186.69 104.14)
		)
		(stroke
			(width 0)
			(type default)
		)
		(uuid "251b7c9d-8b23-48b7-b758-120a59d92687")
	)
	(wire
		(pts
			(xy 224.79 100.33) (xy 236.22 100.33)
		)
		(stroke
			(width 0)
			(type default)
		)
		(uuid "2a54d495-d24c-4fe8-a03d-fd5ca8fbc02f")
	)
	(wire
		(pts
			(xy 186.69 113.03) (xy 168.91 113.03)
		)
		(stroke
			(width 0)
			(type default)
		)
		(uuid "2b8bd793-96c7-4a06-ba5a-465d1d89cabb")
	)
	(wire
		(pts
			(xy 168.91 111.76) (xy 168.91 113.03)
		)
		(stroke
			(width 0)
			(type default)
		)
		(uuid "2c93e68b-23e0-4a8f-845c-7911d3abc09e")
	)
	(wire
		(pts
			(xy 166.37 88.9) (xy 168.91 88.9)
		)
		(stroke
			(width 0)
			(type default)
		)
		(uuid "2fca283b-07ad-4fe4-8cca-34dc149535e1")
	)
	(wire
		(pts
			(xy 186.69 88.9) (xy 194.31 88.9)
		)
		(stroke
			(width 0)
			(type default)
		)
		(uuid "32f1e503-a2a7-4abb-934d-bece6f4ecc46")
	)
	(polyline
		(pts
			(xy 191.77 81.28) (xy 165.1 81.28)
		)
		(stroke
			(width 0)
			(type dot)
		)
		(uuid "3714efa1-51cf-432c-8626-5ba5de1ada45")
	)
	(wire
		(pts
			(xy 168.91 88.9) (xy 186.69 88.9)
		)
		(stroke
			(width 0)
			(type default)
		)
		(uuid "45321be9-c296-4c51-9049-f8588043f5d7")
	)
	(wire
		(pts
			(xy 168.91 97.79) (xy 168.91 99.06)
		)
		(stroke
			(width 0)
			(type default)
		)
		(uuid "4713d2a5-700c-4223-8e8c-bc814fca4fb1")
	)
	(wire
		(pts
			(xy 119.38 97.79) (xy 119.38 100.33)
		)
		(stroke
			(width 0)
			(type default)
		)
		(uuid "4b3e8ab8-6573-4361-8b87-a68e53872f35")
	)
	(wire
		(pts
			(xy 224.79 88.9) (xy 224.79 91.44)
		)
		(stroke
			(width 0)
			(type default)
		)
		(uuid "4c5f072e-a151-4547-8a87-6321d432eae5")
	)
	(polyline
		(pts
			(xy 162.56 86.36) (xy 165.1 81.28)
		)
		(stroke
			(width 0)
			(type dot)
		)
		(uuid "50262ec2-a79a-447a-b0d5-9f8429ffb9f3")
	)
	(wire
		(pts
			(xy 168.91 99.06) (xy 168.91 104.14)
		)
		(stroke
			(width 0)
			(type default)
		)
		(uuid "560a3dbf-a27b-4ecd-83a4-f7e3e3d70709")
	)
	(wire
		(pts
			(xy 247.65 88.9) (xy 247.65 91.44)
		)
		(stroke
			(width 0)
			(type default)
		)
		(uuid "5b29d889-206b-4518-a062-225db1b9f323")
	)
	(wire
		(pts
			(xy 168.91 88.9) (xy 168.91 90.17)
		)
		(stroke
			(width 0)
			(type default)
		)
		(uuid "6335d0a4-3503-455f-8a16-33bc2cc40641")
	)
	(wire
		(pts
			(xy 224.79 99.06) (xy 224.79 100.33)
		)
		(stroke
			(width 0)
			(type default)
		)
		(uuid "70db56c1-cc45-4df8-a876-01d34cf963c4")
	)
	(wire
		(pts
			(xy 151.13 88.9) (xy 156.21 88.9)
		)
		(stroke
			(width 0)
			(type default)
		)
		(uuid "711e8266-1663-4d18-8cd6-839cb071c47e")
	)
	(wire
		(pts
			(xy 247.65 88.9) (xy 252.73 88.9)
		)
		(stroke
			(width 0)
			(type default)
		)
		(uuid "76f8e350-5235-4bb2-9570-5b26b65dc7ea")
	)
	(wire
		(pts
			(xy 194.31 87.63) (xy 194.31 88.9)
		)
		(stroke
			(width 0)
			(type default)
		)
		(uuid "7e3ce5aa-d48a-4494-a13a-cbabf308afed")
	)
	(polyline
		(pts
			(xy 166.37 104.14) (xy 142.24 104.14)
		)
		(stroke
			(width 0)
			(type dot)
		)
		(uuid "7ebaf257-2d90-49a3-af77-c77487d63f91")
	)
	(wire
		(pts
			(xy 161.29 96.52) (xy 161.29 99.06)
		)
		(stroke
			(width 0)
			(type default)
		)
		(uuid "845b23c2-7266-4032-845e-6495e4c790f9")
	)
	(wire
		(pts
			(xy 252.73 88.9) (xy 252.73 86.36)
		)
		(stroke
			(width 0)
			(type default)
		)
		(uuid "8542e208-adf3-42e3-8270-0944dec93a56")
	)
	(wire
		(pts
			(xy 186.69 111.76) (xy 186.69 113.03)
		)
		(stroke
			(width 0)
			(type default)
		)
		(uuid "8c7dc31b-3af0-4017-9f86-adf8a9749d4c")
	)
	(polyline
		(pts
			(xy 167.64 96.52) (xy 166.37 104.14)
		)
		(stroke
			(width 0)
			(type dot)
		)
		(uuid "9015d523-a6ff-4df9-875a-e98c14ecaf43")
	)
	(wire
		(pts
			(xy 236.22 99.06) (xy 247.65 99.06)
		)
		(stroke
			(width 0)
			(type default)
		)
		(uuid "a418ae8b-92fc-439d-a179-b062fd617b8f")
	)
	(wire
		(pts
			(xy 236.22 96.52) (xy 236.22 99.06)
		)
		(stroke
			(width 0)
			(type default)
		)
		(uuid "b996f1db-d2fb-432a-b6a2-bc08cc093958")
	)
	(wire
		(pts
			(xy 220.98 88.9) (xy 224.79 88.9)
		)
		(stroke
			(width 0)
			(type default)
		)
		(uuid "c3661c3a-611c-48fc-84b8-64deb5bd2a59")
	)
	(wire
		(pts
			(xy 168.91 113.03) (xy 168.91 114.3)
		)
		(stroke
			(width 0)
			(type default)
		)
		(uuid "c9c06e7a-c755-4710-bdb5-e2ed07d62edd")
	)
	(wire
		(pts
			(xy 224.79 88.9) (xy 228.6 88.9)
		)
		(stroke
			(width 0)
			(type default)
		)
		(uuid "ccb87f00-d6c7-41fa-987d-80e93ad7fb8f")
	)
	(wire
		(pts
			(xy 243.84 88.9) (xy 247.65 88.9)
		)
		(stroke
			(width 0)
			(type default)
		)
		(uuid "cfd1225f-e911-435d-9143-d540eb07928d")
	)
	(wire
		(pts
			(xy 99.06 97.79) (xy 119.38 97.79)
		)
		(stroke
			(width 0)
			(type default)
		)
		(uuid "e34e1373-69b0-4599-a75a-7458f19f5398")
	)
	(wire
		(pts
			(xy 236.22 99.06) (xy 236.22 100.33)
		)
		(stroke
			(width 0)
			(type default)
		)
		(uuid "f1218bd8-0801-4703-a8f5-28fd2f950ce3")
	)
	(wire
		(pts
			(xy 194.31 88.9) (xy 198.12 88.9)
		)
		(stroke
			(width 0)
			(type default)
		)
		(uuid "f2dfc879-8671-493a-99a9-5412ff05eb2c")
	)
	(text "For reverse polarity protection,\nD connects to Vsupply and \nG connects to Vload."
		(exclude_from_sim no)
		(at 165.1 80.01 0)
		(effects
			(font
				(size 1.27 1.27)
			)
			(justify left bottom)
		)
		(uuid "23a358ee-1045-4ee3-9ff7-0bf88f056daa")
	)
	(text "5V for CANBUS breakout connectors."
		(exclude_from_sim no)
		(at 218.44 109.22 0)
		(effects
			(font
				(size 1.27 1.27)
			)
			(justify left bottom)
		)
		(uuid "4125bbb3-28b0-44cd-8e01-400997dc3cd9")
	)
	(text "Vz is 10V regardless \nof Iz as per datasheet"
		(exclude_from_sim no)
		(at 143.51 104.14 0)
		(effects
			(font
				(size 1.27 1.27)
			)
			(justify left bottom)
		)
		(uuid "cedcd996-5c43-4d1a-8a89-0e8025a91b7e")
	)
	(text "Input Voltage : 6V-14V"
		(exclude_from_sim no)
		(at 91.44 86.36 0)
		(effects
			(font
				(size 1.27 1.27)
			)
			(justify left bottom)
		)
		(uuid "cf66b30f-abe4-4951-9d33-79c61128818c")
	)
	(text "Reverse Polarity Protection"
		(exclude_from_sim no)
		(at 156.21 121.92 0)
		(effects
			(font
				(size 1.27 1.27)
			)
			(justify left bottom)
		)
		(uuid "df7ce507-817e-4cd7-9a7a-f7082c8c89d6")
	)
	(global_label "VIN_raw"
		(shape input)
		(at 119.38 95.25 0)
		(fields_autoplaced yes)
		(effects
			(font
				(size 1.27 1.27)
			)
			(justify left)
		)
		(uuid "0db9632a-21af-4acb-9c05-e041f8c89b3a")
		(property "Intersheetrefs" "${INTERSHEET_REFS}"
			(at 129.0502 95.1706 0)
			(effects
				(font
					(size 1.27 1.27)
				)
				(justify left)
				(hide yes)
			)
		)
	)
	(global_label "VIN"
		(shape input)
		(at 198.12 88.9 0)
		(fields_autoplaced yes)
		(effects
			(font
				(size 1.27 1.27)
			)
			(justify left)
		)
		(uuid "6bfbab26-2ebd-4193-8b3e-10f31cfa49f6")
		(property "Intersheetrefs" "${INTERSHEET_REFS}"
			(at 203.5569 88.8206 0)
			(effects
				(font
					(size 1.27 1.27)
				)
				(justify left)
				(hide yes)
			)
		)
	)
	(global_label "VIN"
		(shape input)
		(at 220.98 88.9 180)
		(fields_autoplaced yes)
		(effects
			(font
				(size 1.27 1.27)
			)
			(justify right)
		)
		(uuid "ba5cc0b7-2328-4fa1-a024-ef0cf771a0a7")
		(property "Intersheetrefs" "${INTERSHEET_REFS}"
			(at 215.5431 88.9794 0)
			(effects
				(font
					(size 1.27 1.27)
				)
				(justify right)
				(hide yes)
			)
		)
	)
	(global_label "VIN_raw"
		(shape input)
		(at 151.13 88.9 180)
		(fields_autoplaced yes)
		(effects
			(font
				(size 1.27 1.27)
			)
			(justify right)
		)
		(uuid "fc21db43-1d7f-4b2d-9bea-fe80258ad93c")
		(property "Intersheetrefs" "${INTERSHEET_REFS}"
			(at 141.4598 88.8206 0)
			(effects
				(font
					(size 1.27 1.27)
				)
				(justify right)
				(hide yes)
			)
		)
	)
	(symbol
		(lib_id "Device:LED")
		(at 186.69 97.79 90)
		(unit 1)
		(exclude_from_sim no)
		(in_bom yes)
		(on_board yes)
		(dnp no)
		(fields_autoplaced yes)
		(uuid "05659ec9-1c27-476b-b70d-0c44532f5c56")
		(property "Reference" "D202"
			(at 190.5 98.1074 90)
			(effects
				(font
					(size 1.27 1.27)
				)
				(justify right)
			)
		)
		(property "Value" "LED"
			(at 190.5 100.6474 90)
			(effects
				(font
					(size 1.27 1.27)
				)
				(justify right)
			)
		)
		(property "Footprint" "LED_SMD:LED_0603_1608Metric"
			(at 186.69 97.79 0)
			(effects
				(font
					(size 1.27 1.27)
				)
				(hide yes)
			)
		)
		(property "Datasheet" "~"
			(at 186.69 97.79 0)
			(effects
				(font
					(size 1.27 1.27)
				)
				(hide yes)
			)
		)
		(property "Description" ""
			(at 186.69 97.79 0)
			(effects
				(font
					(size 1.27 1.27)
				)
				(hide yes)
			)
		)
		(property "Mfr." "Wurth Elektronik "
			(at 186.69 97.79 0)
			(effects
				(font
					(size 1.27 1.27)
				)
				(hide yes)
			)
		)
		(property "Mfr. No." "150060RS55040 "
			(at 186.69 97.79 0)
			(effects
				(font
					(size 1.27 1.27)
				)
				(hide yes)
			)
		)
		(pin "1"
			(uuid "3f89eb78-09a2-48b9-9d2e-0e8fd39a6671")
		)
		(pin "2"
			(uuid "0be07138-f46f-4987-a75f-316371a0af32")
		)
		(instances
			(project "PC104-FlatSat"
				(path "/506a3b6a-28a8-474a-a35a-c6a73a135fff/416f2dc9-040a-4c76-990c-e10ccd505522"
					(reference "D202")
					(unit 1)
				)
			)
		)
	)
	(symbol
		(lib_id "Device:C")
		(at 247.65 95.25 0)
		(unit 1)
		(exclude_from_sim no)
		(in_bom yes)
		(on_board yes)
		(dnp no)
		(uuid "1aa19aeb-fa2f-412d-92b4-c3c707c36d8e")
		(property "Reference" "C202"
			(at 247.65 92.71 0)
			(effects
				(font
					(size 1.27 1.27)
				)
				(justify left)
			)
		)
		(property "Value" "10u"
			(at 247.65 97.79 0)
			(effects
				(font
					(size 1.27 1.27)
				)
				(justify left)
			)
		)
		(property "Footprint" "Capacitor_SMD:C_0805_2012Metric"
			(at 248.6152 99.06 0)
			(effects
				(font
					(size 1.27 1.27)
				)
				(hide yes)
			)
		)
		(property "Datasheet" "~"
			(at 247.65 95.25 0)
			(effects
				(font
					(size 1.27 1.27)
				)
				(hide yes)
			)
		)
		(property "Description" ""
			(at 247.65 95.25 0)
			(effects
				(font
					(size 1.27 1.27)
				)
				(hide yes)
			)
		)
		(property "Mfr." "Samsung Electro-Mechanics"
			(at 247.65 95.25 0)
			(effects
				(font
					(size 1.27 1.27)
				)
				(hide yes)
			)
		)
		(property "Mfr. No." "CL21A106KOQNNNG"
			(at 247.65 95.25 0)
			(effects
				(font
					(size 1.27 1.27)
				)
				(hide yes)
			)
		)
		(pin "1"
			(uuid "1c7e9ae2-df58-44e9-992a-7233917ced1a")
		)
		(pin "2"
			(uuid "2512cdec-0752-41f9-b42b-aed41bcd3fa0")
		)
		(instances
			(project "PC104-FlatSat"
				(path "/506a3b6a-28a8-474a-a35a-c6a73a135fff/416f2dc9-040a-4c76-990c-e10ccd505522"
					(reference "C202")
					(unit 1)
				)
			)
		)
	)
	(symbol
		(lib_id "Connector:Conn_01x02_Socket")
		(at 93.98 95.25 0)
		(mirror y)
		(unit 1)
		(exclude_from_sim no)
		(in_bom yes)
		(on_board yes)
		(dnp no)
		(fields_autoplaced yes)
		(uuid "3c0d1729-78ee-4d33-bce7-cc51fe5e484f")
		(property "Reference" "J201"
			(at 94.615 90.17 0)
			(effects
				(font
					(size 1.27 1.27)
				)
			)
		)
		(property "Value" "Banana Jack"
			(at 94.615 92.71 0)
			(effects
				(font
					(size 1.27 1.27)
				)
			)
		)
		(property "Footprint" "Connector:Banana_Jack_2Pin"
			(at 93.98 95.25 0)
			(effects
				(font
					(size 1.27 1.27)
				)
				(hide yes)
			)
		)
		(property "Datasheet" "~"
			(at 93.98 95.25 0)
			(effects
				(font
					(size 1.27 1.27)
				)
				(hide yes)
			)
		)
		(property "Description" ""
			(at 93.98 95.25 0)
			(effects
				(font
					(size 1.27 1.27)
				)
				(hide yes)
			)
		)
		(property "Mfr." "Cal Test"
			(at 93.98 95.25 0)
			(effects
				(font
					(size 1.27 1.27)
				)
				(hide yes)
			)
		)
		(property "Mfr. No." "CT2230-0, -2"
			(at 93.98 95.25 0)
			(effects
				(font
					(size 1.27 1.27)
				)
				(hide yes)
			)
		)
		(pin "1"
			(uuid "c9521a26-be15-4a1e-8acc-422906829663")
		)
		(pin "2"
			(uuid "706e8940-8275-4fec-9841-867bd410d21e")
		)
		(instances
			(project "PC104-FlatSat"
				(path "/506a3b6a-28a8-474a-a35a-c6a73a135fff/416f2dc9-040a-4c76-990c-e10ccd505522"
					(reference "J201")
					(unit 1)
				)
			)
		)
	)
	(symbol
		(lib_id "power:GND")
		(at 236.22 101.6 0)
		(unit 1)
		(exclude_from_sim no)
		(in_bom yes)
		(on_board yes)
		(dnp no)
		(uuid "6483bacd-0986-419f-acd4-5976ed67ca1f")
		(property "Reference" "#PWR0203"
			(at 236.22 107.95 0)
			(effects
				(font
					(size 1.27 1.27)
				)
				(hide yes)
			)
		)
		(property "Value" "GND"
			(at 236.22 105.41 0)
			(effects
				(font
					(size 1.27 1.27)
				)
			)
		)
		(property "Footprint" ""
			(at 236.22 101.6 0)
			(effects
				(font
					(size 1.27 1.27)
				)
				(hide yes)
			)
		)
		(property "Datasheet" ""
			(at 236.22 101.6 0)
			(effects
				(font
					(size 1.27 1.27)
				)
				(hide yes)
			)
		)
		(property "Description" ""
			(at 236.22 101.6 0)
			(effects
				(font
					(size 1.27 1.27)
				)
				(hide yes)
			)
		)
		(pin "1"
			(uuid "0314b98a-2463-4ab5-bf43-825666c3c7b3")
		)
		(instances
			(project "PC104-FlatSat"
				(path "/506a3b6a-28a8-474a-a35a-c6a73a135fff/416f2dc9-040a-4c76-990c-e10ccd505522"
					(reference "#PWR0203")
					(unit 1)
				)
			)
		)
	)
	(symbol
		(lib_id "Regulator_Linear:LM1117MP-5.0")
		(at 236.22 88.9 0)
		(unit 1)
		(exclude_from_sim no)
		(in_bom yes)
		(on_board yes)
		(dnp no)
		(fields_autoplaced yes)
		(uuid "726b7b83-9791-4d73-ac5a-9dc2951d5a5b")
		(property "Reference" "U201"
			(at 236.22 82.55 0)
			(effects
				(font
					(size 1.27 1.27)
				)
			)
		)
		(property "Value" "LM1117-5.0"
			(at 236.22 85.09 0)
			(effects
				(font
					(size 1.27 1.27)
				)
			)
		)
		(property "Footprint" "Package_TO_SOT_SMD:SOT-223-3_TabPin2"
			(at 236.22 88.9 0)
			(effects
				(font
					(size 1.27 1.27)
				)
				(hide yes)
			)
		)
		(property "Datasheet" "http://www.ti.com/lit/ds/symlink/lm1117.pdf"
			(at 236.22 88.9 0)
			(effects
				(font
					(size 1.27 1.27)
				)
				(hide yes)
			)
		)
		(property "Description" ""
			(at 236.22 88.9 0)
			(effects
				(font
					(size 1.27 1.27)
				)
				(hide yes)
			)
		)
		(property "Mfr." "onsemi "
			(at 236.22 88.9 0)
			(effects
				(font
					(size 1.27 1.27)
				)
				(hide yes)
			)
		)
		(property "Mfr. No." "LM1117MPX-50NOPB"
			(at 236.22 88.9 0)
			(effects
				(font
					(size 1.27 1.27)
				)
				(hide yes)
			)
		)
		(pin "1"
			(uuid "749b1527-26f5-488e-854a-670180247cf5")
		)
		(pin "2"
			(uuid "c16bb8b5-f49d-4f4a-bc92-ae1d92245fb7")
		)
		(pin "3"
			(uuid "65ba916e-e037-453f-a335-c8eceeedf016")
		)
		(instances
			(project "PC104-FlatSat"
				(path "/506a3b6a-28a8-474a-a35a-c6a73a135fff/416f2dc9-040a-4c76-990c-e10ccd505522"
					(reference "U201")
					(unit 1)
				)
			)
		)
	)
	(symbol
		(lib_id "Device:C")
		(at 224.79 95.25 0)
		(unit 1)
		(exclude_from_sim no)
		(in_bom yes)
		(on_board yes)
		(dnp no)
		(uuid "72aa1d50-d7cc-48b8-af45-6ef7e63d5937")
		(property "Reference" "C201"
			(at 224.79 92.71 0)
			(effects
				(font
					(size 1.27 1.27)
				)
				(justify left)
			)
		)
		(property "Value" "10u"
			(at 224.79 97.79 0)
			(effects
				(font
					(size 1.27 1.27)
				)
				(justify left)
			)
		)
		(property "Footprint" "Capacitor_SMD:C_0805_2012Metric"
			(at 225.7552 99.06 0)
			(effects
				(font
					(size 1.27 1.27)
				)
				(hide yes)
			)
		)
		(property "Datasheet" "~"
			(at 224.79 95.25 0)
			(effects
				(font
					(size 1.27 1.27)
				)
				(hide yes)
			)
		)
		(property "Description" ""
			(at 224.79 95.25 0)
			(effects
				(font
					(size 1.27 1.27)
				)
				(hide yes)
			)
		)
		(property "Mfr." "Samsung Electro-Mechanics"
			(at 224.79 95.25 0)
			(effects
				(font
					(size 1.27 1.27)
				)
				(hide yes)
			)
		)
		(property "Mfr. No." "CL21A106KOQNNNG"
			(at 224.79 95.25 0)
			(effects
				(font
					(size 1.27 1.27)
				)
				(hide yes)
			)
		)
		(pin "1"
			(uuid "0d94ef73-d1dc-45b7-b17f-b36f2d7384a3")
		)
		(pin "2"
			(uuid "a3226efb-7d1f-4548-8087-c8faee420a59")
		)
		(instances
			(project "PC104-FlatSat"
				(path "/506a3b6a-28a8-474a-a35a-c6a73a135fff/416f2dc9-040a-4c76-990c-e10ccd505522"
					(reference "C201")
					(unit 1)
				)
			)
		)
	)
	(symbol
		(lib_id "power:+5V")
		(at 252.73 86.36 0)
		(unit 1)
		(exclude_from_sim no)
		(in_bom yes)
		(on_board yes)
		(dnp no)
		(fields_autoplaced yes)
		(uuid "81e767b0-10b5-424e-9bf0-6f833b057e92")
		(property "Reference" "#PWR0204"
			(at 252.73 90.17 0)
			(effects
				(font
					(size 1.27 1.27)
				)
				(hide yes)
			)
		)
		(property "Value" "+5V"
			(at 252.73 81.28 0)
			(effects
				(font
					(size 1.27 1.27)
				)
			)
		)
		(property "Footprint" ""
			(at 252.73 86.36 0)
			(effects
				(font
					(size 1.27 1.27)
				)
				(hide yes)
			)
		)
		(property "Datasheet" ""
			(at 252.73 86.36 0)
			(effects
				(font
					(size 1.27 1.27)
				)
				(hide yes)
			)
		)
		(property "Description" ""
			(at 252.73 86.36 0)
			(effects
				(font
					(size 1.27 1.27)
				)
				(hide yes)
			)
		)
		(pin "1"
			(uuid "42bfbb70-dbcc-483a-b00e-398c4b2ef7a4")
		)
		(instances
			(project "PC104-FlatSat"
				(path "/506a3b6a-28a8-474a-a35a-c6a73a135fff/416f2dc9-040a-4c76-990c-e10ccd505522"
					(reference "#PWR0204")
					(unit 1)
				)
			)
		)
	)
	(symbol
		(lib_id "power:PWR_FLAG")
		(at 194.31 87.63 0)
		(unit 1)
		(exclude_from_sim no)
		(in_bom yes)
		(on_board yes)
		(dnp no)
		(uuid "a32971c2-78f9-4ad2-83f6-f1a05b4c4231")
		(property "Reference" "#FLG0102"
			(at 194.31 85.725 0)
			(effects
				(font
					(size 1.27 1.27)
				)
				(hide yes)
			)
		)
		(property "Value" "PWR_FLAG"
			(at 194.31 83.82 0)
			(effects
				(font
					(size 1.27 1.27)
				)
			)
		)
		(property "Footprint" ""
			(at 194.31 87.63 0)
			(effects
				(font
					(size 1.27 1.27)
				)
				(hide yes)
			)
		)
		(property "Datasheet" "~"
			(at 194.31 87.63 0)
			(effects
				(font
					(size 1.27 1.27)
				)
				(hide yes)
			)
		)
		(property "Description" ""
			(at 194.31 87.63 0)
			(effects
				(font
					(size 1.27 1.27)
				)
				(hide yes)
			)
		)
		(pin "1"
			(uuid "b631d255-6be5-42a6-a727-bdefb291f673")
		)
		(instances
			(project "PC104-FlatSat"
				(path "/506a3b6a-28a8-474a-a35a-c6a73a135fff/416f2dc9-040a-4c76-990c-e10ccd505522"
					(reference "#FLG0102")
					(unit 1)
				)
			)
		)
	)
	(symbol
		(lib_id "PC104-FlatSat:PXP8R3-20QX")
		(at 161.29 90.17 90)
		(unit 1)
		(exclude_from_sim no)
		(in_bom yes)
		(on_board yes)
		(dnp no)
		(uuid "ae1a75fb-9c93-46f8-9e6a-2f08465d305c")
		(property "Reference" "Q201"
			(at 154.94 82.55 90)
			(effects
				(font
					(size 1.27 1.27)
				)
				(justify left)
			)
		)
		(property "Value" "PXP8R3-20QX"
			(at 160.02 85.09 90)
			(effects
				(font
					(size 1.27 1.27)
				)
				(justify left)
			)
		)
		(property "Footprint" "PC104-FlatSat:MLPAK-33"
			(at 161.29 73.66 0)
			(effects
				(font
					(size 1.27 1.27)
				)
				(hide yes)
			)
		)
		(property "Datasheet" "https://gr.mouser.com/datasheet/2/916/PXP8R3_20QX-2721702.pdf"
			(at 158.75 52.07 0)
			(effects
				(font
					(size 1.27 1.27)
				)
				(hide yes)
			)
		)
		(property "Description" ""
			(at 161.29 90.17 0)
			(effects
				(font
					(size 1.27 1.27)
				)
				(hide yes)
			)
		)
		(property "Mfr." "Nexperia "
			(at 161.29 90.17 0)
			(effects
				(font
					(size 1.27 1.27)
				)
				(hide yes)
			)
		)
		(property "Mfr. No." "PXP8R3-20QXJ "
			(at 161.29 90.17 0)
			(effects
				(font
					(size 1.27 1.27)
				)
				(hide yes)
			)
		)
		(pin "1"
			(uuid "8b893dba-bff7-419d-9311-c8f47e597600")
		)
		(pin "2"
			(uuid "5e854451-00e7-4a71-9466-7a3e12dee019")
		)
		(pin "3"
			(uuid "ec5decb7-8731-4851-a352-81e52a15d143")
		)
		(pin "4"
			(uuid "52d82db2-f5ac-439b-b49c-c45ea77f9ab1")
		)
		(pin "5"
			(uuid "c94c1f21-0015-4b4a-938b-4af25d978a8b")
		)
		(instances
			(project "PC104-FlatSat"
				(path "/506a3b6a-28a8-474a-a35a-c6a73a135fff/416f2dc9-040a-4c76-990c-e10ccd505522"
					(reference "Q201")
					(unit 1)
				)
			)
		)
	)
	(symbol
		(lib_id "Device:D_Zener")
		(at 168.91 93.98 270)
		(unit 1)
		(exclude_from_sim no)
		(in_bom yes)
		(on_board yes)
		(dnp no)
		(uuid "cec5c91b-0f2e-497a-af3e-a5a152b16bf2")
		(property "Reference" "D201"
			(at 171.45 92.7099 90)
			(effects
				(font
					(size 1.27 1.27)
				)
				(justify left)
			)
		)
		(property "Value" "BZT52C10"
			(at 170.18 96.52 90)
			(effects
				(font
					(size 1.27 1.27)
				)
				(justify left)
			)
		)
		(property "Footprint" "Diode_SMD:D_SOD-123F"
			(at 168.91 93.98 0)
			(effects
				(font
					(size 1.27 1.27)
				)
				(hide yes)
			)
		)
		(property "Datasheet" "https://gr.mouser.com/datasheet/2/115/DIOD_S_A0003550684_1-2542352.pdf"
			(at 168.91 93.98 0)
			(effects
				(font
					(size 1.27 1.27)
				)
				(hide yes)
			)
		)
		(property "Description" ""
			(at 168.91 93.98 0)
			(effects
				(font
					(size 1.27 1.27)
				)
				(hide yes)
			)
		)
		(property "Mfr." "Diotec Semiconductor "
			(at 168.91 93.98 0)
			(effects
				(font
					(size 1.27 1.27)
				)
				(hide yes)
			)
		)
		(property "Mfr. No." "BZT52C10"
			(at 168.91 93.98 0)
			(effects
				(font
					(size 1.27 1.27)
				)
				(hide yes)
			)
		)
		(property "Sim.Device" "SPICE"
			(at 168.91 93.98 0)
			(effects
				(font
					(size 1.27 1.27)
				)
				(hide yes)
			)
		)
		(property "Sim.Params" ""
			(at 168.91 93.98 0)
			(effects
				(font
					(size 1.27 1.27)
				)
				(hide yes)
			)
		)
		(property "Sim.Pins" "1=1 2=2"
			(at 168.91 93.98 0)
			(effects
				(font
					(size 1.27 1.27)
				)
				(hide yes)
			)
		)
		(pin "1"
			(uuid "659c7120-8885-4090-b510-a594ad335b4b")
		)
		(pin "2"
			(uuid "a66a3b2f-f268-4e38-987e-b27ec003ce16")
		)
		(instances
			(project "PC104-FlatSat"
				(path "/506a3b6a-28a8-474a-a35a-c6a73a135fff/416f2dc9-040a-4c76-990c-e10ccd505522"
					(reference "D201")
					(unit 1)
				)
			)
		)
	)
	(symbol
		(lib_id "Device:R")
		(at 186.69 107.95 0)
		(unit 1)
		(exclude_from_sim no)
		(in_bom yes)
		(on_board yes)
		(dnp no)
		(fields_autoplaced yes)
		(uuid "d252701f-b751-4df1-91fe-49c493fda9ed")
		(property "Reference" "R202"
			(at 189.23 106.6799 0)
			(effects
				(font
					(size 1.27 1.27)
				)
				(justify left)
			)
		)
		(property "Value" "620"
			(at 189.23 109.2199 0)
			(effects
				(font
					(size 1.27 1.27)
				)
				(justify left)
			)
		)
		(property "Footprint" "Resistor_SMD:R_0603_1608Metric"
			(at 184.912 107.95 90)
			(effects
				(font
					(size 1.27 1.27)
				)
				(hide yes)
			)
		)
		(property "Datasheet" "~"
			(at 186.69 107.95 0)
			(effects
				(font
					(size 1.27 1.27)
				)
				(hide yes)
			)
		)
		(property "Description" ""
			(at 186.69 107.95 0)
			(effects
				(font
					(size 1.27 1.27)
				)
				(hide yes)
			)
		)
		(property "Mfr." "YAGEO"
			(at 186.69 107.95 0)
			(effects
				(font
					(size 1.27 1.27)
				)
				(hide yes)
			)
		)
		(property "Mfr. No." "RC0603FR-07620RL"
			(at 186.69 107.95 0)
			(effects
				(font
					(size 1.27 1.27)
				)
				(hide yes)
			)
		)
		(pin "1"
			(uuid "3f5d0cc8-4035-49b8-9bde-b7661434d618")
		)
		(pin "2"
			(uuid "b76c4010-9c0b-490f-8699-579e51351251")
		)
		(instances
			(project "PC104-FlatSat"
				(path "/506a3b6a-28a8-474a-a35a-c6a73a135fff/416f2dc9-040a-4c76-990c-e10ccd505522"
					(reference "R202")
					(unit 1)
				)
			)
		)
	)
	(symbol
		(lib_id "Device:R")
		(at 168.91 107.95 0)
		(unit 1)
		(exclude_from_sim no)
		(in_bom yes)
		(on_board yes)
		(dnp no)
		(fields_autoplaced yes)
		(uuid "dfbe250b-8861-48d0-929d-32e7b587e767")
		(property "Reference" "R201"
			(at 171.45 106.6799 0)
			(effects
				(font
					(size 1.27 1.27)
				)
				(justify left)
			)
		)
		(property "Value" "10k"
			(at 171.45 109.2199 0)
			(effects
				(font
					(size 1.27 1.27)
				)
				(justify left)
			)
		)
		(property "Footprint" "Resistor_SMD:R_0603_1608Metric"
			(at 167.132 107.95 90)
			(effects
				(font
					(size 1.27 1.27)
				)
				(hide yes)
			)
		)
		(property "Datasheet" "~"
			(at 168.91 107.95 0)
			(effects
				(font
					(size 1.27 1.27)
				)
				(hide yes)
			)
		)
		(property "Description" ""
			(at 168.91 107.95 0)
			(effects
				(font
					(size 1.27 1.27)
				)
				(hide yes)
			)
		)
		(property "Mfr." "YAGEO "
			(at 168.91 107.95 0)
			(effects
				(font
					(size 1.27 1.27)
				)
				(hide yes)
			)
		)
		(property "Mfr. No." "RC0603JR-0710KP"
			(at 168.91 107.95 0)
			(effects
				(font
					(size 1.27 1.27)
				)
				(hide yes)
			)
		)
		(pin "1"
			(uuid "53c43bc3-2170-4bcf-a95e-d30d656806f0")
		)
		(pin "2"
			(uuid "2ec9d7d0-14bc-45c3-a47e-412fc8c3e54b")
		)
		(instances
			(project "PC104-FlatSat"
				(path "/506a3b6a-28a8-474a-a35a-c6a73a135fff/416f2dc9-040a-4c76-990c-e10ccd505522"
					(reference "R201")
					(unit 1)
				)
			)
		)
	)
	(symbol
		(lib_id "power:GND")
		(at 119.38 100.33 0)
		(mirror y)
		(unit 1)
		(exclude_from_sim no)
		(in_bom yes)
		(on_board yes)
		(dnp no)
		(uuid "e0f5ae2f-e387-43fe-ac3d-a4e01e46f514")
		(property "Reference" "#PWR0201"
			(at 119.38 106.68 0)
			(effects
				(font
					(size 1.27 1.27)
				)
				(hide yes)
			)
		)
		(property "Value" "GND"
			(at 119.38 104.14 0)
			(effects
				(font
					(size 1.27 1.27)
				)
			)
		)
		(property "Footprint" ""
			(at 119.38 100.33 0)
			(effects
				(font
					(size 1.27 1.27)
				)
				(hide yes)
			)
		)
		(property "Datasheet" ""
			(at 119.38 100.33 0)
			(effects
				(font
					(size 1.27 1.27)
				)
				(hide yes)
			)
		)
		(property "Description" ""
			(at 119.38 100.33 0)
			(effects
				(font
					(size 1.27 1.27)
				)
				(hide yes)
			)
		)
		(pin "1"
			(uuid "1dce7b9d-4f2a-4eaf-92bf-fbc13310290c")
		)
		(instances
			(project "PC104-FlatSat"
				(path "/506a3b6a-28a8-474a-a35a-c6a73a135fff/416f2dc9-040a-4c76-990c-e10ccd505522"
					(reference "#PWR0201")
					(unit 1)
				)
			)
		)
	)
	(symbol
		(lib_id "power:GND")
		(at 168.91 114.3 0)
		(unit 1)
		(exclude_from_sim no)
		(in_bom yes)
		(on_board yes)
		(dnp no)
		(uuid "f8cfd3aa-e4ff-4f9d-9bf9-0adf19203b52")
		(property "Reference" "#PWR0202"
			(at 168.91 120.65 0)
			(effects
				(font
					(size 1.27 1.27)
				)
				(hide yes)
			)
		)
		(property "Value" "GND"
			(at 168.91 118.11 0)
			(effects
				(font
					(size 1.27 1.27)
				)
			)
		)
		(property "Footprint" ""
			(at 168.91 114.3 0)
			(effects
				(font
					(size 1.27 1.27)
				)
				(hide yes)
			)
		)
		(property "Datasheet" ""
			(at 168.91 114.3 0)
			(effects
				(font
					(size 1.27 1.27)
				)
				(hide yes)
			)
		)
		(property "Description" ""
			(at 168.91 114.3 0)
			(effects
				(font
					(size 1.27 1.27)
				)
				(hide yes)
			)
		)
		(pin "1"
			(uuid "934f6b2e-d892-4606-8ba6-f8b20bec47c8")
		)
		(instances
			(project "PC104-FlatSat"
				(path "/506a3b6a-28a8-474a-a35a-c6a73a135fff/416f2dc9-040a-4c76-990c-e10ccd505522"
					(reference "#PWR0202")
					(unit 1)
				)
			)
		)
	)
)
